// SINGLE ARTICLE RESPONSE
{
    "response": {
        "status": "ok",
        "userTier": "free",
        "total": 1,
        "content": {
            "id": "business/2014/feb/18/uk-inflation-falls-below-bank-england-target",
            "sectionId": "business",
            "sectionName": "Business",
            "webPublicationDate": "2014-02-18T11:02:45Z",
            "webTitle": "UK inflation falls below Bank of England's 2% target",
            "webUrl": "https://www.theguardian.com/business/2014/feb/18/uk-inflation-falls-below-bank-england-target",
            "apiUrl": "https://content.guardianapis.com/business/2014/feb/18/uk-inflation-falls-below-bank-england-target"
        }
    }
}




// https://content.guardianapis.com/search?q=12%20years%20a%20slave&format=json&tag=film/film,tone/reviews&from-date=2010-01-01&show-tags=contributor&show-fields=starRating,headline,thumbnail,short-url&order-by=relevance&api-key=test
// search
{"response":{"status":"ok","userTier":"developer","total":246,"startIndex":1,"pageSize":10,"currentPage":1,"pages":25,"orderBy":"relevance","results":[{"id":"film/2020/jul/17/cruel-intentions-review-ryan-phillippe-sarah-michelle-gellar-reese-witherspoon","type":"article","sectionId":"film","sectionName":"Film","webPublicationDate":"2020-07-17T10:00:12Z","webTitle":"Cruel Intentions review – young love still looks laboured 21 years on","webUrl":"https://www.theguardian.com/film/2020/jul/17/cruel-intentions-review-ryan-phillippe-sarah-michelle-gellar-reese-witherspoon","apiUrl":"https://content.guardianapis.com/film/2020/jul/17/cruel-intentions-review-ryan-phillippe-sarah-michelle-gellar-reese-witherspoon","fields":{"headline":"Cruel Intentions review – young love still looks laboured 21 years on","starRating":"2","shortUrl":"https://gu.com/p/eag6v","thumbnail":"https://media.guim.co.uk/6ccbb72b20c27709d5c27dc06837c79e97ded4d0/0_93_3000_1800/500.jpg"},"tags":[{"id":"profile/peterbradshaw","type":"contributor","webTitle":"Peter Bradshaw","webUrl":"https://www.theguardian.com/profile/peterbradshaw","apiUrl":"https://content.guardianapis.com/profile/peterbradshaw","references":[],"bio":"<p>Peter Bradshaw is the Guardian's film critic</p>","bylineImageUrl":"https://uploads.guim.co.uk/2018/01/10/Peter-Bradshaw.jpg","bylineLargeImageUrl":"https://uploads.guim.co.uk/2018/01/10/Peter_Bradshaw,_L.png","firstName":"Peter","lastName":"Bradshaw","twitterHandle":"PeterBradshaw1"}],"isHosted":false,"pillarId":"pillar/arts","pillarName":"Arts"},{"id":"film/2019/sep/11/harriet-review-toronto-film-festival","type":"article","sectionId":"film","sectionName":"Film","webPublicationDate":"2019-09-11T12:39:16Z","webTitle":"Harriet review – Cynthia Erivo is sublime as legendary slave rebel","webUrl":"https://www.theguardian.com/film/2019/sep/11/harriet-review-toronto-film-festival","apiUrl":"https://content.guardianapis.com/film/2019/sep/11/harriet-review-toronto-film-festival","fields":{"headline":"Harriet review – Cynthia Erivo is sublime as legendary slave rebel","starRating":"4","shortUrl":"https://gu.com/p/cajjv","thumbnail":"https://media.guim.co.uk/3aa7fdc482270d9c1f754971f81eff64994f4ca1/0_6_2250_1350/500.jpg"},"tags":[{"id":"profile/peterbradshaw","type":"contributor","webTitle":"Peter Bradshaw","webUrl":"https://www.theguardian.com/profile/peterbradshaw","apiUrl":"https://content.guardianapis.com/profile/peterbradshaw","references":[],"bio":"<p>Peter Bradshaw is the Guardian's film critic</p>","bylineImageUrl":"https://uploads.guim.co.uk/2018/01/10/Peter-Bradshaw.jpg","bylineLargeImageUrl":"https://uploads.guim.co.uk/2018/01/10/Peter_Bradshaw,_L.png","firstName":"Peter","lastName":"Bradshaw","twitterHandle":"PeterBradshaw1"}],"isHosted":false,"pillarId":"pillar/arts","pillarName":"Arts"},{"id":"film/2020/feb/21/onward-review-pixar-tom-holland-chris-pratt","type":"article","sectionId":"film","sectionName":"Film","webPublicationDate":"2020-02-21T17:00:06Z","webTitle":"Onward review – Pixar's best film in years is Frozen with boys","webUrl":"https://www.theguardian.com/film/2020/feb/21/onward-review-pixar-tom-holland-chris-pratt","apiUrl":"https://content.guardianapis.com/film/2020/feb/21/onward-review-pixar-tom-holland-chris-pratt","fields":{"headline":"Onward review – Pixar's best film in years is Frozen with boys","starRating":"4","shortUrl":"https://gu.com/p/daykv","thumbnail":"https://media.guim.co.uk/413b4bb8b9b8e8a8d8ca32aca35831f4f8e0aded/1328_0_4288_2574/500.jpg"},"tags":[{"id":"profile/steverose","type":"contributor","webTitle":"Steve Rose","webUrl":"https://www.theguardian.com/profile/steverose","apiUrl":"https://content.guardianapis.com/profile/steverose","references":[],"bio":"<p>Steve's <a href=\"https://twitter.com/steverose7\">Twitter</a></p>","bylineImageUrl":"https://uploads.guim.co.uk/2018/11/25/Steve_Rose.jpg","firstName":"Steve","lastName":"Rose","twitterHandle":"steverose7"}],"isHosted":false,"pillarId":"pillar/arts","pillarName":"Arts"},{"id":"film/2019/sep/22/best-before-death-review-bill-drummond","type":"article","sectionId":"film","sectionName":"Film","webPublicationDate":"2019-09-22T04:30:05Z","webTitle":"Best Before Death review – Bill Drummond’s intriguing art odyssey","webUrl":"https://www.theguardian.com/film/2019/sep/22/best-before-death-review-bill-drummond","apiUrl":"https://content.guardianapis.com/film/2019/sep/22/best-before-death-review-bill-drummond","fields":{"headline":"Best Before Death review – Bill Drummond’s intriguing art odyssey","starRating":"3","shortUrl":"https://gu.com/p/ccv2g","thumbnail":"https://media.guim.co.uk/0d2a9dd3c14286f1011d66a2b98294920c0146ff/0_559_4032_2419/500.jpg"},"tags":[{"id":"profile/wendy-ide","type":"contributor","sectionId":"film","sectionName":"Film","webTitle":"Wendy Ide","webUrl":"https://www.theguardian.com/profile/wendy-ide","apiUrl":"https://content.guardianapis.com/profile/wendy-ide","references":[],"bylineImageUrl":"https://uploads.guim.co.uk/2018/01/17/Wendy-Ide.jpg","bylineLargeImageUrl":"https://uploads.guim.co.uk/2018/01/17/Wendy_Ide,_L.png","firstName":"Wendy","lastName":"Ide"}],"isHosted":false,"pillarId":"pillar/arts","pillarName":"Arts"},{"id":"film/2019/oct/13/the-irishman-review-martin-scorseses-finest-film-for-30-years","type":"article","sectionId":"film","sectionName":"Film","webPublicationDate":"2019-10-13T13:22:42Z","webTitle":"The Irishman review – Martin Scorsese's finest film for 30 years","webUrl":"https://www.theguardian.com/film/2019/oct/13/the-irishman-review-martin-scorseses-finest-film-for-30-years","apiUrl":"https://content.guardianapis.com/film/2019/oct/13/the-irishman-review-martin-scorseses-finest-film-for-30-years","fields":{"headline":"The Irishman review – Martin Scorsese's finest film for 30 years","starRating":"5","shortUrl":"https://gu.com/p/cg8fk","thumbnail":"https://media.guim.co.uk/e47c0e6a5c169974ed9ec7a2a67cbbc4cb647327/267_0_3566_2140/500.jpg"},"tags":[{"id":"profile/peterbradshaw","type":"contributor","webTitle":"Peter Bradshaw","webUrl":"https://www.theguardian.com/profile/peterbradshaw","apiUrl":"https://content.guardianapis.com/profile/peterbradshaw","references":[],"bio":"<p>Peter Bradshaw is the Guardian's film critic</p>","bylineImageUrl":"https://uploads.guim.co.uk/2018/01/10/Peter-Bradshaw.jpg","bylineLargeImageUrl":"https://uploads.guim.co.uk/2018/01/10/Peter_Bradshaw,_L.png","firstName":"Peter","lastName":"Bradshaw","twitterHandle":"PeterBradshaw1"}],"isHosted":false,"pillarId":"pillar/arts","pillarName":"Arts"},{"id":"film/2019/mar/12/good-boys-review-foul-mouthed-comedy-is-superbad-with-12-year-olds","type":"article","sectionId":"film","sectionName":"Film","webPublicationDate":"2019-03-12T17:47:17Z","webTitle":"Good Boys review – foul-mouthed comedy is Superbad with 12-year-olds","webUrl":"https://www.theguardian.com/film/2019/mar/12/good-boys-review-foul-mouthed-comedy-is-superbad-with-12-year-olds","apiUrl":"https://content.guardianapis.com/film/2019/mar/12/good-boys-review-foul-mouthed-comedy-is-superbad-with-12-year-olds","fields":{"headline":"Good Boys review – foul-mouthed comedy is Superbad with 12-year-olds","starRating":"3","shortUrl":"https://gu.com/p/bxhcn","thumbnail":"https://media.guim.co.uk/49247fbcc057355abafa3d176ae407b4ce785618/0_116_1731_1039/500.jpg"},"tags":[],"isHosted":false,"pillarId":"pillar/arts","pillarName":"Arts"},{"id":"film/2018/sep/09/widows-review-steve-mcqueen-dazzles-with-masterful-thriller","type":"article","sectionId":"film","sectionName":"Film","webPublicationDate":"2018-09-09T18:27:33Z","webTitle":"Widows review – Steve McQueen dazzles with masterful thriller","webUrl":"https://www.theguardian.com/film/2018/sep/09/widows-review-steve-mcqueen-dazzles-with-masterful-thriller","apiUrl":"https://content.guardianapis.com/film/2018/sep/09/widows-review-steve-mcqueen-dazzles-with-masterful-thriller","fields":{"headline":"Widows review – Steve McQueen dazzles with masterful thriller","starRating":"4","shortUrl":"https://gu.com/p/9bcq8","thumbnail":"https://media.guim.co.uk/1280433b09a46ed7f89995a5094ce79717226496/0_1_3075_1845/500.jpg"},"tags":[{"id":"profile/benjamin-lee-film","type":"contributor","webTitle":"Benjamin Lee","webUrl":"https://www.theguardian.com/profile/benjamin-lee-film","apiUrl":"https://content.guardianapis.com/profile/benjamin-lee-film","references":[],"bio":"<p>Benjamin Lee is the east coast arts editor at Guardian US, based in New York</p>","bylineImageUrl":"https://uploads.guim.co.uk/2016/04/21/Benjamin-Lee.jpg","bylineLargeImageUrl":"https://uploads.guim.co.uk/2017/10/06/Benjamin-Lee,-L.png","firstName":"Benjamin","lastName":"Lee"}],"isHosted":false,"pillarId":"pillar/arts","pillarName":"Arts"},{"id":"film/2020/may/20/edge-of-extinction-review","type":"article","sectionId":"film","sectionName":"Film","webPublicationDate":"2020-05-20T16:00:31Z","webTitle":"Edge of Extinction review – a gruelling fight to survive … and stay awake","webUrl":"https://www.theguardian.com/film/2020/may/20/edge-of-extinction-review","apiUrl":"https://content.guardianapis.com/film/2020/may/20/edge-of-extinction-review","fields":{"headline":"Edge of Extinction review – a gruelling fight to survive … and stay awake","starRating":"2","shortUrl":"https://gu.com/p/dq3az","thumbnail":"https://media.guim.co.uk/68e52f4e6e5bfc30d8b452092ffdc8368b31902a/145_69_1467_881/500.jpg"},"tags":[{"id":"profile/peterbradshaw","type":"contributor","webTitle":"Peter Bradshaw","webUrl":"https://www.theguardian.com/profile/peterbradshaw","apiUrl":"https://content.guardianapis.com/profile/peterbradshaw","references":[],"bio":"<p>Peter Bradshaw is the Guardian's film critic</p>","bylineImageUrl":"https://uploads.guim.co.uk/2018/01/10/Peter-Bradshaw.jpg","bylineLargeImageUrl":"https://uploads.guim.co.uk/2018/01/10/Peter_Bradshaw,_L.png","firstName":"Peter","lastName":"Bradshaw","twitterHandle":"PeterBradshaw1"}],"isHosted":false,"pillarId":"pillar/arts","pillarName":"Arts"},{"id":"film/2019/nov/24/harriet-review-harriet-tubman-biopic-cynthia-erivo-janelle-monae","type":"article","sectionId":"film","sectionName":"Film","webPublicationDate":"2019-11-24T07:00:16Z","webTitle":"Harriet review – thrilling drama about the abolitionist Harriet Tubman","webUrl":"https://www.theguardian.com/film/2019/nov/24/harriet-review-harriet-tubman-biopic-cynthia-erivo-janelle-monae","apiUrl":"https://content.guardianapis.com/film/2019/nov/24/harriet-review-harriet-tubman-biopic-cynthia-erivo-janelle-monae","fields":{"headline":"Harriet review – thrilling drama about the abolitionist Harriet Tubman","starRating":"4","shortUrl":"https://gu.com/p/cmkqf","thumbnail":"https://media.guim.co.uk/08f585315696c883a47236adef1a2cb7689ecb51/180_0_2958_1776/500.jpg"},"tags":[{"id":"profile/simran-hans","type":"contributor","webTitle":"Simran Hans","webUrl":"https://www.theguardian.com/profile/simran-hans","apiUrl":"https://content.guardianapis.com/profile/simran-hans","references":[],"bio":"<p>Simran Hans is a film critic for the Observer and a culture writer whose work has appeared in, among others, BuzzFeed, Dazed, the FADER and Sight &amp; Sound.</p>","bylineImageUrl":"https://uploads.guim.co.uk/2018/01/18/Simran-Hans.jpg","bylineLargeImageUrl":"https://uploads.guim.co.uk/2018/01/18/Simran_Hans,_L.png","firstName":"Simran","lastName":"Hans","twitterHandle":"heavier_things "}],"isHosted":false,"pillarId":"pillar/arts","pillarName":"Arts"},{"id":"culture/2020/apr/03/hugh-grants-guilty-pleasures-rediscovering-the-saucy-and-sapphic-curios-of-his-back-catalogue","type":"article","sectionId":"culture","sectionName":"Culture","webPublicationDate":"2020-04-02T16:30:56Z","webTitle":"Hugh Grant's guilty pleasures: rediscovering the saucy and Sapphic curios of his back catalogue","webUrl":"https://www.theguardian.com/culture/2020/apr/03/hugh-grants-guilty-pleasures-rediscovering-the-saucy-and-sapphic-curios-of-his-back-catalogue","apiUrl":"https://content.guardianapis.com/culture/2020/apr/03/hugh-grants-guilty-pleasures-rediscovering-the-saucy-and-sapphic-curios-of-his-back-catalogue","fields":{"headline":"Hugh Grant's guilty pleasures: rediscovering the saucy and Sapphic curios of his back catalogue","shortUrl":"https://gu.com/p/dtxyt","thumbnail":"https://media.guim.co.uk/9857f4f08f7c97d168e64a47ca7a5e0db553d57c/0_119_6679_4006/500.jpg"},"tags":[{"id":"profile/jenny-valentish","type":"contributor","webTitle":"Jenny Valentish","webUrl":"https://www.theguardian.com/profile/jenny-valentish","apiUrl":"https://content.guardianapis.com/profile/jenny-valentish","references":[],"bio":"<p>Jenny Valentish is the author of Woman of Substances: A Journey into Addiction and Treatment&nbsp;</p>","firstName":"Jenny","lastName":"Valentish"}],"isHosted":false,"pillarId":"pillar/arts","pillarName":"Arts"}]}}

// search query with thumbnail
// SEARCH https://content.guardianapis.com/search?q=cars&api-key=1a62e070-dc54-4b0a-8c96-c9efe8797107&show-fields=thumbnail

{"response":{"status":"ok","userTier":"developer","total":65687,"startIndex":1,"pageSize":10,"currentPage":1,"pages":6569,"orderBy":"relevance","results":[{"id":"us-news/2020/jul/17/portland-protests-federal-officers-george-floyd","type":"article","sectionId":"us-news","sectionName":"US news","webPublicationDate":"2020-07-17T20:24:15Z","webTitle":"Federal officers are using unmarked cars to arrest Portland protesters","webUrl":"https://www.theguardian.com/us-news/2020/jul/17/portland-protests-federal-officers-george-floyd","apiUrl":"https://content.guardianapis.com/us-news/2020/jul/17/portland-protests-federal-officers-george-floyd","fields":{"thumbnail":"https://media.guim.co.uk/5b484d0aa615f57c4b0f2819502453625ff97a5c/0_25_4000_2399/500.jpg"},"isHosted":false,"pillarId":"pillar/news","pillarName":"News"},{"id":"business/2020/jul/21/used-cars-uk-commuters-transport-scooters-mopeds-bikes","type":"article","sectionId":"business","sectionName":"Business","webPublicationDate":"2020-07-21T05:00:34Z","webTitle":"UK public transport fears drive more online demand for used cars","webUrl":"https://www.theguardian.com/business/2020/jul/21/used-cars-uk-commuters-transport-scooters-mopeds-bikes","apiUrl":"https://content.guardianapis.com/business/2020/jul/21/used-cars-uk-commuters-transport-scooters-mopeds-bikes","fields":{"thumbnail":"https://media.guim.co.uk/cb735b7d6c035fca51398506050556d4f7463eff/0_327_4952_2973/500.jpg"},"isHosted":false,"pillarId":"pillar/news","pillarName":"News"},{"id":"money/2020/jul/11/electric-cars-five-best-buys-from-new-models-to-used-bargains","type":"article","sectionId":"money","sectionName":"Money","webPublicationDate":"2020-07-11T11:00:10Z","webTitle":"Electric cars: five best buys, from new models to used bargains","webUrl":"https://www.theguardian.com/money/2020/jul/11/electric-cars-five-best-buys-from-new-models-to-used-bargains","apiUrl":"https://content.guardianapis.com/money/2020/jul/11/electric-cars-five-best-buys-from-new-models-to-used-bargains","fields":{"thumbnail":"https://media.guim.co.uk/1c4c318347bad3a08601b3cc91905979d4245fab/0_0_2560_1536/500.jpg"},"isHosted":false,"pillarId":"pillar/lifestyle","pillarName":"Lifestyle"},{"id":"business/2020/may/29/british-car-industry-produced-just-197-cars-last-month","type":"article","sectionId":"business","sectionName":"Business","webPublicationDate":"2020-05-28T23:01:43Z","webTitle":"British car industry produced just 197 cars last month","webUrl":"https://www.theguardian.com/business/2020/may/29/british-car-industry-produced-just-197-cars-last-month","apiUrl":"https://content.guardianapis.com/business/2020/may/29/british-car-industry-produced-just-197-cars-last-month","fields":{"thumbnail":"https://media.guim.co.uk/01917966694c4bf09ad12727bad0d59a9490497a/0_0_6720_4032/500.jpg"},"isHosted":false,"pillarId":"pillar/news","pillarName":"News"},{"id":"world/2020/jul/07/zimbabwe-spends-millions-on-officials-luxury-cars-as-country-goes-hungry","type":"article","sectionId":"world","sectionName":"World news","webPublicationDate":"2020-07-07T09:45:07Z","webTitle":"Zimbabwe spends millions on officials' luxury cars as country goes hungry","webUrl":"https://www.theguardian.com/world/2020/jul/07/zimbabwe-spends-millions-on-officials-luxury-cars-as-country-goes-hungry","apiUrl":"https://content.guardianapis.com/world/2020/jul/07/zimbabwe-spends-millions-on-officials-luxury-cars-as-country-goes-hungry","fields":{"thumbnail":"https://media.guim.co.uk/772fc3cda350aa47015cfd554b22fbad013f58d0/0_156_3500_2101/500.jpg"},"isHosted":false,"pillarId":"pillar/news","pillarName":"News"},{"id":"sport/2020/jul/02/f1-2020-team-by-team-guide-to-the-cars-and-drivers","type":"article","sectionId":"sport","sectionName":"Sport","webPublicationDate":"2020-07-02T07:04:45Z","webTitle":"F1 2020: team-by-team guide to the cars and drivers | Giles Richards","webUrl":"https://www.theguardian.com/sport/2020/jul/02/f1-2020-team-by-team-guide-to-the-cars-and-drivers","apiUrl":"https://content.guardianapis.com/sport/2020/jul/02/f1-2020-team-by-team-guide-to-the-cars-and-drivers","fields":{"thumbnail":"https://media.guim.co.uk/e029471efdd29979782b3b6b38e2004bcca58a11/2_0_3020_1814/500.jpg"},"isHosted":false,"pillarId":"pillar/sport","pillarName":"Sport"},{"id":"business/2020/jun/02/electric-carseurope-covid-19-emissions-reductions","type":"article","sectionId":"business","sectionName":"Business","webPublicationDate":"2020-06-02T12:07:15Z","webTitle":"Electric cars gain market share in Europe despite Covid-19 crisis","webUrl":"https://www.theguardian.com/business/2020/jun/02/electric-carseurope-covid-19-emissions-reductions","apiUrl":"https://content.guardianapis.com/business/2020/jun/02/electric-carseurope-covid-19-emissions-reductions","fields":{"thumbnail":"https://media.guim.co.uk/5cc44315cf4d467d99f99c0c34fe7399b2741a46/16_626_3435_2062/500.jpg"},"isHosted":false,"pillarId":"pillar/news","pillarName":"News"},{"id":"thehybridhero/2020/mar/11/your-guide-to-different-types-of-hybrid-cars","type":"article","sectionId":"thehybridhero","sectionName":"The hybrid hero","webPublicationDate":"2020-03-11T14:40:37Z","webTitle":"Your guide to different types of hybrid cars","webUrl":"https://www.theguardian.com/thehybridhero/2020/mar/11/your-guide-to-different-types-of-hybrid-cars","apiUrl":"https://content.guardianapis.com/thehybridhero/2020/mar/11/your-guide-to-different-types-of-hybrid-cars","fields":{"thumbnail":"https://media.guim.co.uk/6c512add84c589ebc9bde4ccd9c070ab12b37627/0_150_5100_3060/500.jpg"},"isHosted":false},{"id":"world/2020/apr/06/drive-by-strauss-hungarian-orchestra-airs-concerts-from-cars","type":"article","sectionId":"world","sectionName":"World news","webPublicationDate":"2020-04-06T09:46:55Z","webTitle":"Drive-by Strauss: Hungarian orchestra airs concerts from cars","webUrl":"https://www.theguardian.com/world/2020/apr/06/drive-by-strauss-hungarian-orchestra-airs-concerts-from-cars","apiUrl":"https://content.guardianapis.com/world/2020/apr/06/drive-by-strauss-hungarian-orchestra-airs-concerts-from-cars","fields":{"thumbnail":"https://media.guim.co.uk/16e27567ac8bbf3ea17fb8b5de009f56550655b3/85_897_3475_2085/500..jpg"},"isHosted":false,"pillarId":"pillar/news","pillarName":"News"},{"id":"australia-news/2020/jul/30/electric-cars-green-recovery-price-second-hand-bulk-buy","type":"article","sectionId":"australia-news","sectionName":"Australia news","webPublicationDate":"2020-07-29T17:30:06Z","webTitle":"Electric cars have few downsides except price. One company is looking to change that","webUrl":"https://www.theguardian.com/australia-news/2020/jul/30/electric-cars-green-recovery-price-second-hand-bulk-buy","apiUrl":"https://content.guardianapis.com/australia-news/2020/jul/30/electric-cars-green-recovery-price-second-hand-bulk-buy","fields":{"thumbnail":"https://media.guim.co.uk/c155abc7e6a8f29c8a006387f6e068227a588534/0_0_2500_1500/500.jpg"},"isHosted":false,"pillarId":"pillar/news","pillarName":"News"}]}}



// CATEGORY SEARCH url
// https://content.guardianapis.com/technology?api-key=1a62e070-dc54-4b0a-8c96-c9efe8797107&show-fields=thumbnail